…
WC_Matches %>% filter(Year == 2022) %>% select (HomeTeam)

## # A tibble: 64 × 1
##    HomeTeam     
##    <chr>        
##  1 Qatar        
##  2 Senegal      
##  3 England      
##  4 United States
##  5 France       
##  6 Denmark      
##  7 Mexico       
##  8 Argentina    
##  9 Belgium      
## 10 Spain        
## # … with 54 more rows
…
International_Matches_Form <- International_Matches_Transformed_latest5 %>% select(Country, Result) %>% 
  mutate(Result_numeric = case_match(Result, "Win" ~ 3,  "Draw" ~ 1,  "Loss"  ~ 0)) %>%
  group_by(Country) %>%
  summarise(Total_point = sum(Result_numeric)) %>%
  mutate(Form_B4_WC = case_when(Total_point>10 ~ "A", Total_point <5 ~ "C", .default = "B"))%>%
  arrange(desc(Total_point))

International_Matches_Form

## # A tibble: 32 × 3
##    Country     Total_point Form_B4_WC
##    <chr>             <dbl> <chr>     
##  1 Brazil               15 A         
##  2 Argentina            13 A         
##  3 Croatia              13 A         
##  4 Netherlands          13 A         
##  5 Senegal              13 A         
##  6 Serbia               13 A         
##  7 South Korea          11 A         
##  8 Australia            10 B         
##  9 Belgium              10 B         
## 10 Costa Rica           10 B         
## # … with 22 more rows
…
